simulation/qsim/Letreiro.msim.vcd
$comment
	File created using the following command:
		vcd file Letreiro.msim.vcd -direction
$end
$date
	Sat Apr 15 17:00:47 2023
$end
$version
	ModelSim Version 10.1d
$end
$timescale
	1ps
$end
$scope module Letreiro_vlg_vec_tst $end
$var reg 1 ! CLK $end
$var reg 1 " ch0 $end
$var reg 1 # ch1 $end
$var wire 1 $ C1 $end
$var wire 1 % C2 $end
$var wire 1 & C3 $end
$var wire 1 ' C4 $end
$var wire 1 ( C5 $end
$var wire 1 ) C6 $end
$var wire 1 * C7 $end
$var wire 1 + L1 $end
$var wire 1 , L2 $end
$var wire 1 - L3 $end
$var wire 1 . L4 $end
$var wire 1 / L5 $end
$var wire 1 0 sampler $end
$scope module i1 $end
$var wire 1 1 gnd $end
$var wire 1 2 vcc $end
$var wire 1 3 unknown $end
$var tri1 1 4 devclrn $end
$var tri1 1 5 devpor $end
$var tri1 1 6 devoe $end
$var wire 1 7 CLK~combout $end
$var wire 1 8 inst1|inst1|inst1|Q~regout $end
$var wire 1 9 inst1|inst1|inst2|Q~regout $end
$var wire 1 : inst1|inst1|inst3|Q~regout $end
$var wire 1 ; inst1|WideAnd0~0_combout $end
$var wire 1 < inst1|WideAnd0~1_combout $end
$var wire 1 = inst1|WideAnd0~2_combout $end
$var wire 1 > inst1|WideAnd0~3_combout $end
$var wire 1 ? inst1|WideAnd0~4_combout $end
$var wire 1 @ ch0~combout $end
$var wire 1 A ch1~combout $end
$var wire 1 B instL5|inst16|en~combout $end
$var wire 1 C instL2|inst16|Q~regout $end
$var wire 1 D instL2|inst15|Q~regout $end
$var wire 1 E instL2|inst14|Q~regout $end
$var wire 1 F instL2|inst13|Q~regout $end
$var wire 1 G instL2|inst12|Q~regout $end
$var wire 1 H instL2|inst11|Q~regout $end
$var wire 1 I instL2|inst10|Q~regout $end
$var wire 1 J instL2|inst9|Q~regout $end
$var wire 1 K instL2|inst8|Q~regout $end
$var wire 1 L instL2|inst7|Q~regout $end
$var wire 1 M instL2|inst6|Q~regout $end
$var wire 1 N instL2|inst5|Q~regout $end
$var wire 1 O instL2|inst4|Q~regout $end
$var wire 1 P instL2|inst3|Q~regout $end
$var wire 1 Q instL2|inst2|Q~regout $end
$var wire 1 R instL2|inst1|Q~regout $end
$var wire 1 S inst1|WideAnd0~5_combout $end
$var wire 1 T instL1|inst16|Q~regout $end
$var wire 1 U instL1|inst15|Q~regout $end
$var wire 1 V instL1|inst14|Q~regout $end
$var wire 1 W instL1|inst13|Q~regout $end
$var wire 1 X instL1|inst12|Q~regout $end
$var wire 1 Y instL1|inst11|Q~regout $end
$var wire 1 Z instL1|inst10|Q~regout $end
$var wire 1 [ instL1|inst9|Q~regout $end
$var wire 1 \ instL1|inst8|Q~regout $end
$var wire 1 ] instL1|inst7|Q~regout $end
$var wire 1 ^ instL1|inst6|Q~regout $end
$var wire 1 _ instL1|inst5|Q~regout $end
$var wire 1 ` instL1|inst4|Q~regout $end
$var wire 1 a instL1|inst3|Q~regout $end
$var wire 1 b instL1|inst2|Q~regout $end
$var wire 1 c instL1|inst1|Q~regout $end
$var wire 1 d inst1|SaidaC1|WideOr0~0_combout $end
$var wire 1 e instL5|inst16|Q~regout $end
$var wire 1 f instL5|inst15|Q~regout $end
$var wire 1 g instL5|inst14|Q~regout $end
$var wire 1 h instL5|inst13|Q~regout $end
$var wire 1 i instL5|inst12|Q~regout $end
$var wire 1 j instL5|inst11|Q~regout $end
$var wire 1 k instL5|inst10|Q~regout $end
$var wire 1 l instL5|inst9|Q~regout $end
$var wire 1 m instL5|inst8|Q~regout $end
$var wire 1 n instL5|inst7|Q~regout $end
$var wire 1 o instL5|inst6|Q~regout $end
$var wire 1 p instL5|inst5|Q~regout $end
$var wire 1 q instL5|inst4|Q~regout $end
$var wire 1 r instL5|inst3|Q~regout $end
$var wire 1 s instL5|inst2|Q~regout $end
$var wire 1 t instL5|inst1|Q~regout $end
$var wire 1 u instL4|inst2|Q~regout $end
$var wire 1 v instL4|inst3|Q~regout $end
$var wire 1 w instL4|inst4|Q~regout $end
$var wire 1 x instL4|inst5|Q~regout $end
$var wire 1 y instL4|inst6|Q~regout $end
$var wire 1 z instL4|inst7|Q~regout $end
$var wire 1 { instL4|inst8|Q~regout $end
$var wire 1 | instL4|inst9|Q~regout $end
$var wire 1 } instL4|inst10|Q~regout $end
$var wire 1 ~ instL4|inst11|Q~regout $end
$var wire 1 !! instL4|inst12|Q~regout $end
$var wire 1 "! instL4|inst13|Q~regout $end
$var wire 1 #! instL4|inst14|Q~regout $end
$var wire 1 $! instL4|inst15|Q~regout $end
$var wire 1 %! instL4|inst16|Q~regout $end
$var wire 1 &! instL4|inst1|Q~regout $end
$var wire 1 '! inst1|SaidaC1|WideOr0~1_combout $end
$var wire 1 (! inst1|SaidaC2|WideOr0~0_combout $end
$var wire 1 )! inst1|SaidaC2|WideOr0~1_combout $end
$var wire 1 *! inst1|SaidaC3|WideOr0~0_combout $end
$var wire 1 +! inst1|SaidaC3|WideOr0~1_combout $end
$var wire 1 ,! inst1|SaidaC4|WideOr0~0_combout $end
$var wire 1 -! inst1|SaidaC4|WideOr0~1_combout $end
$var wire 1 .! inst1|SaidaC5|WideOr0~0_combout $end
$var wire 1 /! inst1|SaidaC5|WideOr0~1_combout $end
$var wire 1 0! inst1|SaidaC6|WideOr0~0_combout $end
$var wire 1 1! inst1|SaidaC6|WideOr0~1_combout $end
$var wire 1 2! inst1|SaidaC7|WideOr0~0_combout $end
$var wire 1 3! inst1|SaidaC7|WideOr0~1_combout $end
$upscope $end
$upscope $end
$enddefinitions $end
#0
$dumpvars
0!
0"
0#
0$
0%
0&
0'
0(
0)
0*
1+
0,
0-
0.
0/
x0
01
12
x3
14
15
16
07
08
09
0:
1;
0<
0=
0>
0?
0@
0A
1B
0C
0D
0E
0F
0G
0H
0I
0J
0K
0L
0M
0N
0O
0P
0Q
0R
1S
0T
0U
0V
0W
0X
0Y
0Z
0[
0\
0]
0^
0_
0`
0a
0b
0c
0d
0e
0f
0g
0h
0i
0j
0k
0l
0m
0n
0o
0p
0q
0r
0s
0t
0u
0v
0w
0x
0y
0z
0{
0|
0}
0~
0!!
0"!
0#!
0$!
0%!
0&!
0'!
0(!
0)!
0*!
0+!
0,!
0-!
0.!
0/!
00!
01!
02!
03!
$end
#5000
1!
17
00
1&!
1$!
1|
1x
1v
1t
1s
1r
1p
1o
1n
1l
1h
1g
1f
1c
1a
1_
1^
1]
1[
1Z
1Y
1W
1V
1U
1R
1P
1N
1J
1F
18
1d
1*!
1.!
10!
12!
0S
1?
0;
1'!
1+!
1/!
11!
13!
02!
00!
0.!
0*!
0d
1/
0+
03!
01!
0/!
0+!
0'!
1$
1&
1(
1)
1*
0*
0)
0(
0&
0$
19
0?
0/
1:
#10000
1"
0!
1@
07
10
#15000
1!
17
00
0&!
1%!
0$!
1}
0|
1y
0x
1w
0v
1u
0t
1q
0p
1m
0l
1k
0h
1e
0c
1b
0a
1`
0_
1\
0[
1X
0W
1T
0R
1Q
0P
1O
0N
1M
0J
1I
0F
1E
08
1>
13!
11!
1-!
1+!
1)!
1.
1*
1)
1'
1&
1%
#20000
0!
07
10
#25000
1!
17
00
1&!
0%!
1~
0}
1z
0y
1x
0w
1v
0u
1t
0s
1p
0o
1l
0k
1j
0g
1c
0b
1a
0`
1_
0^
1[
0Z
1W
0V
0Q
1P
0O
1N
0M
1L
0I
1H
0E
1D
18
1'!
01!
1/!
0)!
0>
03!
0/!
0-!
0+!
0'!
1$
0)
1(
0%
0.
0*
0(
0'
0&
0$
09
#30000
0!
07
10
#35000
1!
17
00
0&!
1!!
0~
1{
0z
1y
0x
1w
0v
1u
1s
0r
1o
0n
1k
0j
1i
0f
1b
0a
1`
0_
1^
0]
1Z
0Y
1V
0U
0P
1O
0N
1M
0L
1K
0H
1G
0D
1C
08
1<
10!
1,!
1,
11!
1-!
1)
1'
#40000
0!
07
10
#45000
1!
17
00
1"!
0!!
1|
0{
1z
0y
1x
0w
1v
0u
1r
0q
1n
0m
1j
0i
1h
0e
1a
0`
1_
0^
1]
0\
1Y
0X
1U
0T
1R
0O
1N
0M
1L
0K
1J
0G
1F
0C
18
0,!
1.!
00!
12!
1d
0<
0-!
1/!
01!
13!
1'!
02!
0.!
0d
0,
03!
0/!
0'!
0'
1(
0)
1*
1$
0*
0(
0$
19
0:
#50000
0!
07
10
#55000
1!
17
00
1#!
0"!
1}
0|
1{
0z
1y
0x
1w
0v
0t
1q
0p
1m
0l
1i
0h
1g
0c
1`
0_
1^
0]
1\
0[
1X
0W
1T
0R
1Q
0N
1M
0L
1K
0J
1I
0F
1E
08
1S
1=
10!
1,!
1*!
1(!
1-
11!
1-!
1+!
1)!
1)
1'
1&
1%
#60000
0!
07
10
#65000
1!
17
00
1$!
0#!
1~
0}
1|
0{
1z
0y
1x
0w
0s
1p
0o
1l
0k
1h
0g
1f
1c
0b
1_
0^
1]
0\
1[
0Z
1W
0V
0Q
1P
0M
1L
0K
1J
0I
1H
0E
1D
18
1d
0(!
1.!
00!
12!
0S
0=
1'!
0)!
1/!
01!
13!
02!
0.!
0,!
0*!
0d
0-
03!
0/!
0-!
0+!
0'!
1$
0%
1(
0)
1*
0*
0(
0'
0&
0$
09
1?
1/
#70000
0!
07
10
#75000
1!
17
00
1%!
0$!
1!!
0~
1}
0|
1{
0z
1y
0x
0r
1o
0n
1k
0j
1g
0f
1e
1b
0a
1^
0]
1\
0[
1Z
0Y
1V
0U
0P
1O
0L
1K
0J
1I
0H
1G
0D
1C
08
1S
0?
1;
10!
1.!
1,!
1(!
1d
0/
1+
11!
1/!
1-!
1)!
1'!
1)
1(
1'
1%
1$
#80000
0!
07
10
#85000
1!
17
00
1&!
0%!
1"!
0!!
1~
0}
1|
0{
1z
0y
1t
0q
1n
0m
1j
0i
1f
0e
1a
0`
1]
0\
1[
0Z
1Y
0X
1U
0T
1R
0O
1N
0K
1J
0I
1H
0G
1F
0C
18
1*!
0,!
12!
0S
1?
0;
1+!
0-!
13!
02!
00!
0.!
0*!
0(!
0d
1/
0+
03!
01!
0/!
0+!
0)!
0'!
1&
0'
1*
0*
0)
0(
0&
0%
0$
19
0?
0/
1:
#90000
0!
07
10
#95000
1!
17
00
0&!
1#!
0"!
1!!
0~
1}
0|
1{
0z
1u
0t
1s
0p
1m
0l
1i
0h
1e
0c
1`
0_
1\
0[
1Z
0Y
1X
0W
1T
0R
1Q
0N
1M
0J
1I
0H
1G
0F
1E
08
1>
13!
11!
1)!
1.
1*
1)
1%
#100000
0!
07
10
#105000
1!
17
00
1$!
0#!
1"!
0!!
1~
0}
1|
0{
1v
0u
1t
0s
1r
0o
1l
0k
1h
0g
1c
0b
1_
0^
1[
0Z
1Y
0X
1W
0V
0Q
1P
0M
1L
0I
1H
0G
1F
0E
1D
18
1+!
0)!
1'!
01!
0>
03!
0+!
0'!
1&
0%
1$
0)
0.
0*
0&
0$
09
#110000
0!
07
10
#115000
1!
17
00
1%!
0$!
1#!
0"!
1!!
0~
1}
0|
1w
0v
1s
0r
1q
0n
1k
0j
1g
0f
1b
0a
1^
0]
1Z
0Y
1X
0W
1V
0U
0P
1O
0L
1K
0H
1G
0F
1E
0D
1C
08
1<
1,!
1,
1-!
1'
#120000
0!
07
10
#125000
1!
17
00
1&!
0%!
1$!
0#!
1"!
0!!
1~
0}
1x
0w
1r
0q
1p
0m
1j
0i
1f
0e
1a
0`
1]
0\
1Y
0X
1W
0V
1U
0T
1R
0O
1N
0K
1J
0G
1F
0E
1D
0C
18
0,!
1d
1.!
0<
0-!
1'!
1/!
0.!
0d
0,
0/!
0'!
0'
1$
1(
0(
0$
19
0:
#130000
0!
07
10
#135000
1!
17
00
0&!
1%!
0$!
1#!
0"!
1!!
0~
1y
0x
1u
0t
1q
0p
1o
0l
1i
0h
1e
0c
1`
0_
1\
0[
1X
0W
1V
0U
1T
0R
1Q
0N
1M
0J
1I
0F
1E
0D
1C
08
1S
1=
12!
10!
1,!
1*!
1(!
1-
13!
11!
1-!
1+!
1)!
1*
1)
1'
1&
1%
#140000
0!
07
10
#145000
1!
17
00
1&!
0%!
1$!
0#!
1"!
0!!
1z
0y
1v
0u
1t
0s
1p
0o
1n
0k
1h
0g
1c
0b
1_
0^
1[
0Z
1W
0V
1U
0T
1R
0Q
1P
0M
1L
0I
1H
0E
1D
0C
18
1d
0(!
1.!
00!
0S
0=
1'!
0)!
1/!
01!
02!
0.!
0,!
0*!
0d
0-
03!
0/!
0-!
0+!
0'!
1$
0%
1(
0)
0*
0(
0'
0&
0$
09
1?
1/
#150000
0!
07
10
#155000
1!
17
00
0&!
1%!
0$!
1#!
0"!
1{
0z
1w
0v
1u
1s
0r
1o
0n
1m
0j
1g
0f
0c
1b
0a
1^
0]
1Z
0Y
1V
0U
1T
0R
1Q
0P
1O
0L
1K
0H
1G
0D
1C
08
1S
0?
1;
10!
1.!
1,!
1(!
0/
1+
11!
1/!
1-!
1)!
1)
1(
1'
1%
#160000
0!
07
10
#165000
1!
17
00
1&!
0%!
1$!
0#!
1|
0{
1x
0w
1v
0u
1r
0q
1n
0m
1l
0i
1f
0e
1c
0b
1a
0`
1]
0\
1Y
0X
1U
0T
1R
0Q
1P
0O
1N
0K
1J
0G
1F
0C
18
1d
0(!
1*!
0,!
12!
0S
1?
0;
1'!
0)!
1+!
0-!
13!
02!
00!
0.!
0*!
0d
1/
0+
03!
01!
0/!
0+!
0'!
1$
0%
1&
0'
1*
0*
0)
0(
0&
0$
19
0?
0/
1:
#170000
0!
07
10
#175000
1!
17
00
0&!
1%!
0$!
1}
0|
1y
0x
1w
0v
1u
0t
1q
0p
1m
0l
1k
0h
1e
0c
1b
0a
1`
0_
1\
0[
1X
0W
1T
0R
1Q
0P
1O
0N
1M
0J
1I
0F
1E
08
1>
13!
11!
1-!
1+!
1)!
1.
1*
1)
1'
1&
1%
#180000
0!
07
10
#185000
1!
17
00
1&!
0%!
1~
0}
1z
0y
1x
0w
1v
0u
1t
0s
1p
0o
1l
0k
1j
0g
1c
0b
1a
0`
1_
0^
1[
0Z
1W
0V
0Q
1P
0O
1N
0M
1L
0I
1H
0E
1D
18
1'!
01!
1/!
0)!
0>
03!
0/!
0-!
0+!
0'!
1$
0)
1(
0%
0.
0*
0(
0'
0&
0$
09
#190000
0!
07
10
#195000
1!
17
00
0&!
1!!
0~
1{
0z
1y
0x
1w
0v
1u
1s
0r
1o
0n
1k
0j
1i
0f
1b
0a
1`
0_
1^
0]
1Z
0Y
1V
0U
0P
1O
0N
1M
0L
1K
0H
1G
0D
1C
08
1<
10!
1,!
1,
11!
1-!
1)
1'
